{
  "headers": {
    "Content-Type": "application/json",
    "Connection": "keep-alive"
  },

  "studiengänge": {
    "Betriebswirtschaft (BA)": 1,
    "International Betriebswirtschaft (BA)": 2,
    "International Betriebswirtschaft (MA)": 3,
    "Marktorientierte Unternehmensfuehrung (MA)": 4,
    "Personalmanagement (MA)": 5,
    "Automobilwirtschaft und -technik (BA)": 6,
    "Biomedizinische Technik (BA)": 7,
    "Elektro- und Informationstechnik (BA)": 8,
    "Internat. Wirtschaftsingenieurwesen (BA)": 9,
    "Wirtschaftsing.wesen (BA)": 10,
    "Applied Research in Engineering Sciences (MA)": 11,
    "Bordnetzentwicklung (MA)": 12,
    "Elektro- und Informationstechnik (MA)": 13,
    "Wirtschaftsingenieurwesen (MA)": 14,
    "Automobilinformatik (BA)": 15,
    "Informatik (BA)": 16,
    "Informatik (MA)": 17,
    "Systems Engeneering (MA)": 18,
    "Wirtschaftsinformatik (BA)": 19,
    "Wirtschaftsinformatik (MA)": 20,
    "Hebamme weiterqualifizierend (BA)": 21,
    "Gebaerdensprachdolmetschen (BA)": 22,
    "Ingenieurpaedagogik (BA)": 23,
    "Ingenieurpsychologie (BA)": 24,
    "Automobil- und Nutzfahrzeugtechnik (BA)": 25,
    "Leichtbau und Simulation (MA)": 27,
    "Maschinenbau (BA)": 28,
    "Automobil- und Nutzfahrzeugtechnik (MA)": 29,
    "Soziale Arbeit (BA)": 30,
    "Soziale Arbeit in der Kinder- und Jugendhilfe (BA)": 31,
    "Kinische Sozialarbeit (MA)": 32,
    "BetDiversitaet gestalten (MA)": 33,
    "Diversitaet gestalten (MA)": 54,
    "Steuerberatung (BA)": 55,
    "Digitalisierung und Unternehmensgründung (BA)": 56,
    "Digitalisierung, Prozessoptimierung und Management (BA)": 57,
    "Digitale Unternehmensführung (MA, berufsbegleitend)": 58,
    "Intelligente Systeme und Smart Factory (BA)": 59,
    "Prozessmanagement und Ressourceneffizienz(MA, berufsbegleitend)": 60,
    "Werteorientiertes Produktionsmanagement(MA, berufsbegleitend)": 61,
    "Wirtschaftsingenieurwesen(BA, berufsbegleitend)": 62,
    "Wirtschaftsingenieurwesen Energie und Logistik(BA, berufsbegleitend)": 63,
    "Künstliche Intelligenz (BA)": 64,
    "Systems and Project Management (MA)": 65,
    "Interdisziplinäre Studien (BA)": 66,
    "Neue Medien und interkulturelle Kommunikation (BA)": 67,
    "Physician Assistant/Arztassistenz (BA)": 68,
    "Entwicklung und Leichtbau (BA)": 69,
    "Automobiltechnik (BA)": 70,
    "Bauingenieurwesen (BA)": 71,
    "Nutzfahrzeugtechnik (BA)": 72,
    "Simulation Based Engineering (MA, berufsbegleitend)": 73,
    "Systems and Project Management (MA, berufsbegleitend)": 74,
    "Prozessoptimierung & Management (BA)": 75,
    "Digitalisierung": 76,
    "Digitalisierung & Unternehmensgründung (BA)": 77,
    "Additive Fertigung - Werkstoffe": 78
  },

  "fakultäten": [
    "betriebswirtschaft",
    "elektrotechnik_wirtschaftsingenieurwese'n",
    "informatik",
    "interdisziplaenere_studien",
    "maschinenbau",
    "soziale_arbeit"
  ]
}
